{
    "key": "post_type_65f883e36fae4",
    "title": "Teams",
    "menu_order": 0,
    "active": true,
    "post_type": "team",
    "advanced_configuration": true,
    "import_source": "cptui",
    "import_date": 1710785507,
    "labels": {
        "name": "Teams",
        "singular_name": "Team",
        "menu_name": "Teams",
        "all_items": "All Teams",
        "add_new": "Add new",
        "add_new_item": "Add new Team",
        "edit_item": "Edit Team",
        "new_item": "New Team",
        "view_item": "View Team",
        "view_items": "View Teams",
        "search_items": "Search Teams",
        "not_found": "No Teams found",
        "not_found_in_trash": "No Teams found in trash",
        "parent_item_colon": "Parent Team:",
        "archives": "Team archives",
        "attributes": "Teams attributes",
        "featured_image": "Featured image for this Team",
        "set_featured_image": "Set featured image for this Team",
        "remove_featured_image": "Remove featured image for this Team",
        "use_featured_image": "Use as featured image for this Team",
        "insert_into_item": "Insert into Team",
        "uploaded_to_this_item": "Upload to this Team",
        "filter_items_list": "Filter Teams list",
        "filter_by_date": "",
        "items_list_navigation": "Teams list navigation",
        "items_list": "Teams list",
        "item_published": "Team published",
        "item_published_privately": "Team published privately.",
        "item_reverted_to_draft": "Team reverted to draft.",
        "item_scheduled": "Team scheduled",
        "item_updated": "Team updated.",
        "item_link": "",
        "item_link_description": "",
        "parent": "Parent Team:",
        "name_admin_bar": "Team"
    },
    "description": "",
    "public": true,
    "hierarchical": false,
    "exclude_from_search": false,
    "publicly_queryable": true,
    "show_ui": true,
    "show_in_menu": true,
    "admin_menu_parent": "",
    "show_in_admin_bar": true,
    "show_in_nav_menus": true,
    "show_in_rest": true,
    "rest_base": "",
    "rest_namespace": "wp\/v2",
    "rest_controller_class": "",
    "menu_position": "",
    "menu_icon": "dashicons-shield-alt",
    "rename_capabilities": false,
    "singular_capability_name": "post",
    "plural_capability_name": "posts",
    "supports": [
        "title",
        "editor",
        "thumbnail",
        "page-attributes"
    ],
    "taxonomies": [
        "category",
        "post_tag"
    ],
    "has_archive": true,
    "has_archive_slug": "",
    "rewrite": {
        "permalink_rewrite": "post_type_key",
        "slug": "",
        "feeds": false,
        "pages": true,
        "with_front": false
    },
    "query_var": "post_type_key",
    "query_var_name": "",
    "can_export": true,
    "delete_with_user": false,
    "register_meta_box_cb": "",
    "enter_title_here": "",
    "modified": 1710785507
}
